module simple-service

go 1.19

require (
	github.com/go-sql-driver/mysql v1.6.0 // indirect
	github.com/jinzhu/inflection v1.0.0 // indirect
	github.com/jinzhu/now v1.1.5 // indirect
	github.com/joho/godotenv v1.4.0 // indirect
	golang.org/x/text v0.5.0
	gorm.io/driver/mysql v1.4.4 // indirect
	gorm.io/gorm v1.24.2 // indirect
)
