module social-todo-service

go 1.19

require github.com/spf13/cobra v1.6.1

require (
	github.com/200Lab-Education/go-sdk v1.1.3 // indirect
	github.com/btcsuite/btcutil v1.0.2 // indirect
	github.com/facebookgo/flagenv v0.0.0-20160425205200-fcd59fca7456 // indirect
	github.com/gin-contrib/sse v0.1.0 // indirect
	github.com/gin-gonic/gin v1.8.2 // indirect
	github.com/globalsign/mgo v0.0.0-20181015135952-eeefdecb41b8 // indirect
	github.com/go-playground/locales v0.14.1 // indirect
	github.com/go-playground/universal-translator v0.18.1 // indirect
	github.com/go-playground/validator/v10 v10.11.2 // indirect
	github.com/go-resty/resty/v2 v2.7.0 // indirect
	github.com/go-sql-driver/mysql v1.7.0 // indirect
	github.com/goccy/go-json v0.10.0 // indirect
	github.com/golang-jwt/jwt/v4 v4.4.3 // indirect
	github.com/golang/groupcache v0.0.0-20210331224755-41bb18bfe9da // indirect
	github.com/golang/protobuf v1.5.2 // indirect
	github.com/hashicorp/golang-lru v0.5.0 // indirect
	github.com/inconshreveable/mousetrap v1.0.1 // indirect
	github.com/jinzhu/inflection v1.0.0 // indirect
	github.com/jinzhu/now v1.1.5 // indirect
	github.com/joho/godotenv v1.5.1 // indirect
	github.com/json-iterator/go v1.1.12 // indirect
	github.com/leodido/go-urn v1.2.1 // indirect
	github.com/mattn/go-colorable v0.1.13 // indirect
	github.com/mattn/go-isatty v0.0.17 // indirect
	github.com/mgutz/ansi v0.0.0-20200706080929-d51e80ef957d // indirect
	github.com/modern-go/concurrent v0.0.0-20180306012644-bacd9c7ef1dd // indirect
	github.com/modern-go/reflect2 v1.0.2 // indirect
	github.com/pelletier/go-toml/v2 v2.0.6 // indirect
	github.com/sirupsen/logrus v1.9.0 // indirect
	github.com/spf13/pflag v1.0.5 // indirect
	github.com/ugorji/go/codec v1.2.10 // indirect
	github.com/x-cray/logrus-prefixed-formatter v0.5.2 // indirect
	go.opencensus.io v0.24.0 // indirect
	golang.org/x/crypto v0.6.0 // indirect
	golang.org/x/net v0.7.0 // indirect
	golang.org/x/oauth2 v0.5.0 // indirect
	golang.org/x/sys v0.5.0 // indirect
	golang.org/x/term v0.5.0 // indirect
	golang.org/x/text v0.7.0 // indirect
	google.golang.org/appengine v1.6.7 // indirect
	google.golang.org/protobuf v1.28.1 // indirect
	gopkg.in/yaml.v2 v2.4.0 // indirect
	gorm.io/driver/mysql v1.4.5 // indirect
	gorm.io/gorm v1.24.3 // indirect
)
